// Jest Snapshot v1, https://goo.gl/fbAQLP

exports[`Boost action component renders correctly 1`] = `
<View>
  <View
    onPress={[Function]}
    style={
      Array [
        Object {
          "flexDirection": "row",
          "justifyContent": "center",
        },
        Object {
          "paddingHorizontal": 15,
        },
        Object {
          "paddingVertical": 20,
        },
        Object {
          "alignItems": "center",
        },
      ]
    }
    underlayColor="transparent"
  >
    <View
      style={
        Array [
          Object {
            "flexDirection": "row",
            "justifyContent": "flex-start",
          },
          Object {
            "alignContent": "center",
            "alignItems": "center",
            "alignSelf": "center",
            "justifyContent": "center",
          },
        ]
      }
    >
      <Text
        allowFontScaling={false}
        style={
          Array [
            Object {
              "color": undefined,
              "fontSize": 21,
            },
            Object {
              "color": "#72727C",
            },
            Object {
              "fontFamily": "Material Design Icons",
              "fontStyle": "normal",
              "fontWeight": "normal",
            },
            Object {},
          ]
        }
      >
        󰔵
      </Text>
    </View>
  </View>
</View>
`;
