// Jest Snapshot v1, https://goo.gl/fbAQLP

exports[`Thumb action component renders correctly 1`] = `
<Fragment>
  <preventDoubleTap(TouchableOpacity)
    onPress={[Function]}
    style={
      Array [
        Object {
          "flexDirection": "row",
          "justifyContent": "center",
        },
        Object {
          "paddingHorizontal": 15,
        },
        Object {
          "paddingVertical": 20,
        },
        Object {
          "alignItems": "center",
        },
      ]
    }
    testID="Remind activity button"
  >
    <Icon
      allowFontScaling={false}
      name="repeat"
      size={21}
      style={
        Array [
          Object {
            "color": "#7D7D82",
          },
          Object {
            "marginRight": 5,
          },
        ]
      }
    />
    <Counter
      count={0}
      size={15}
    />
  </preventDoubleTap(TouchableOpacity)>
</Fragment>
`;
